unq:name,cost
'Adder',87808
'Anaconda',146969451
'Asp',6661153
'Clipper',22295860
'Cobra',379718
'Diamondback Explorer',1894760
'Diamondback Scout',564329
'Dropship',19814205
'Eagle',44800
'Fer-de-Lance',51567040
'Hauler',52720
'Imperial Courier',2542930
'Orca',48539887
'Python',56978179
'Sidewinder',32000
'Type 6',1045945
'Type 7',17472252
'Type 9',76555842
'Viper',142931
'Vulture',4925615
